<?xml version="1.0" standalone="no"?>
<!DOCTYPE svg PUBLIC "-//W3C//DTD SVG 1.1//EN" "http://www.w3.org/Graphics/SVG/1.1/DTD/svg11.dtd" >
<svg xmlns="http://www.w3.org/2000/svg">
<metadata></metadata>
<defs>
<font id="GothamLightRegular" horiz-adv-x="1310" >
<font-face units-per-em="2048" ascent="1638" descent="-410" />
<missing-glyph horiz-adv-x="614" />
<glyph unicode="&#xfb01;" horiz-adv-x="1251" d="M100 952v92h152v103q0 180 92 272q82 82 219 82q47 0 84 -6t72 -18v-95q-45 14 -80 20.5t-76 6.5q-211 0 -211 -264v-101h365v-92h-365v-952h-100v952h-152zM934 1317v137h125v-137h-125zM946 0v1044h101v-1044h-101z" />
<glyph unicode="&#xfb02;" horiz-adv-x="1251" d="M100 952v92h152v103q0 180 92 272q82 82 219 82q47 0 84 -6t72 -18v-95q-45 14 -80 20.5t-76 6.5q-211 0 -211 -264v-101h365v-92h-365v-952h-100v952h-152zM946 0v1495h101v-1495h-101z" />
<glyph horiz-adv-x="0" />
<glyph horiz-adv-x="2048" />
<glyph unicode=" "  horiz-adv-x="614" />
<glyph unicode="&#x09;" horiz-adv-x="614" />
<glyph unicode="&#xa0;" horiz-adv-x="614" />
<glyph unicode="!" horiz-adv-x="516" d="M190 0v174h136v-174h-136zM199 1290v144h118v-144l-30 -915h-58z" />
<glyph unicode="&#x22;" horiz-adv-x="839" d="M139 913l72 521h133v-11l-145 -510h-60zM508 913l72 521h133v-11l-146 -510h-59z" />
<glyph unicode="#" horiz-adv-x="1433" d="M100 383v96h265l84 484h-267v96h283l63 375h99l-64 -375h424l64 375h98l-64 -375h246v-96h-262l-84 -484h264v-96h-280l-66 -383h-98l65 383h-424l-65 -383h-98l65 383h-248zM463 479h424l84 484h-424z" />
<glyph unicode="$" horiz-adv-x="1294" d="M123 221l67 80q96 -90 196.5 -142.5t225.5 -62.5v582q-231 51 -332.5 140t-101.5 243v4q0 76 32 142.5t89 115.5t136 79t173 32v118h99v-122q119 -10 211 -52.5t184 -115.5l-68 -80q-80 72 -160.5 108.5t-171.5 46.5v-575q233 -49 338 -140.5t105 -240.5v-4 q0 -80 -32 -147.5t-90 -118t-139 -79t-177 -32.5v-201h-99v203q-141 12 -258 66.5t-227 152.5zM283 1069q0 -49 14 -91t51 -78t100.5 -64.5t163.5 -53.5v559q-150 -4 -239.5 -80.5t-89.5 -187.5v-4zM702 92q76 2 138.5 23.5t107.5 58.5t68.5 87t23.5 108v4q0 51 -14 94 t-53 78t-104.5 62.5t-166.5 49.5v-565z" />
<glyph unicode="%" horiz-adv-x="1687" d="M113 1079v4q0 72 22.5 138.5t64.5 117t100 81t130 30.5q70 0 128 -29.5t99 -81t63.5 -117t22.5 -135.5v-4q0 -72 -22.5 -138t-64.5 -117.5t-100 -81t-130 -29.5t-129 29.5t-98 80t-63.5 116t-22.5 136.5zM219 1083q0 -61 16.5 -112t46 -88t67.5 -57.5t81 -20.5 q45 0 83 21.5t65.5 58.5t43 87t15.5 107v4q0 59 -16.5 110.5t-46 88.5t-67.5 58.5t-81 21.5q-45 0 -83 -21.5t-65.5 -59.5t-43 -88t-15.5 -106v-4zM262 0l1053 1434h110l-1052 -1434h-111zM944 346v4q0 72 22.5 138.5t64.5 116.5t100.5 81t130.5 31q70 0 128 -30t99 -81 t63.5 -116.5t22.5 -135.5v-4q0 -72 -22.5 -138.5t-64.5 -117.5t-100.5 -80.5t-130.5 -29.5t-129 29.5t-98 79.5t-63.5 115.5t-22.5 137.5zM1051 350q0 -61 16 -112.5t46 -88t68 -57t81 -20.5q45 0 82.5 21.5t65.5 58t43 87t15 107.5v4q0 59 -16 110.5t-46 88.5t-68 58.5 t-81 21.5q-45 0 -82.5 -21.5t-65.5 -59.5t-43 -88t-15 -106v-4z" />
<glyph unicode="&#x26;" horiz-adv-x="1425" d="M100 377v4q0 145 97.5 249.5t273.5 170.5q-82 90 -121 163.5t-39 163.5v5q0 70 27 129t74 103t113.5 68.5t144.5 24.5q70 0 130 -24.5t104 -66.5t69.5 -99.5t25.5 -120.5v-4q0 -135 -93 -224.5t-259 -146.5l377 -387q53 74 99 162t87 186l97 -39q-49 -111 -101.5 -207 t-111.5 -174l264 -272l-84 -70l-248 256q-102 -119 -221 -183t-264 -64q-94 0 -175 29.5t-139.5 81.5t-92.5 125t-34 161zM207 381q0 -66 24.5 -122t69.5 -98t106.5 -65.5t135.5 -23.5q121 0 223 60.5t192 164.5l-423 438q-172 -59 -250 -152.5t-78 -197.5v-4zM418 1133 q0 -35 8 -66t27.5 -64.5t51.5 -73.5t79 -91q309 98 309 301v4q0 96 -64.5 160.5t-162.5 64.5q-111 0 -179.5 -66.5t-68.5 -164.5v-4z" />
<glyph unicode="'" horiz-adv-x="471" d="M139 913l72 521h133v-11l-145 -510h-60z" />
<glyph unicode="(" horiz-adv-x="880" d="M145 588q0 281 147.5 502t420.5 374l43 -67q-244 -150 -374 -350.5t-130 -458.5t130 -459t374 -350l-43 -68q-272 154 -420 375t-148 502z" />
<glyph unicode=")" horiz-adv-x="880" d="M125 -221q244 150 374 350.5t130 458.5t-130 458.5t-374 350.5l43 67q272 -154 419.5 -375t147.5 -501q0 -281 -147.5 -502t-419.5 -375z" />
<glyph unicode="*" horiz-adv-x="880" d="M154 1020l241 115l-241 114l45 76l217 -147l-19 260h86l-18 -260l217 147l45 -76l-242 -114l242 -115l-45 -76l-217 148l18 -261h-86l19 261l-217 -148z" />
<glyph unicode="+" d="M160 672v98h444v440h103v-440h444v-98h-444v-441h-103v441h-444z" />
<glyph unicode="," horiz-adv-x="471" d="M109 -168q66 35 92 72t22 96h-55v174h135v-151q0 -96 -39 -151.5t-131 -90.5z" />
<glyph unicode="-" horiz-adv-x="835" d="M143 551v115h549v-115h-549z" />
<glyph unicode="." horiz-adv-x="471" d="M168 0v174h135v-174h-135z" />
<glyph unicode="/" horiz-adv-x="1024" d="M-37 -262l967 1896h100l-967 -1896h-100z" />
<glyph unicode="0" horiz-adv-x="1454" d="M133 713v4q0 147 42 282.5t120 236.5t187.5 161.5t246.5 60.5t246.5 -59.5t186.5 -160.5t118 -235.5t41 -281.5v-4q0 -147 -42 -282.5t-120 -237t-187.5 -162t-246.5 -60.5t-246.5 59.5t-186.5 161t-118 235.5t-41 282zM244 717q0 -125 33.5 -241t97 -206t153.5 -144 t201 -54t200 53t151.5 142t96 205t33.5 241v4q0 125 -33.5 241.5t-97 205.5t-153.5 143.5t-201 54.5t-200 -53.5t-151.5 -142.5t-96 -204.5t-33.5 -240.5v-4z" />
<glyph unicode="1" horiz-adv-x="686" d="M61 1323l328 121h82v-1444h-104v1333l-277 -94z" />
<glyph unicode="2" horiz-adv-x="1208" d="M98 0v80l535 483q88 80 148.5 145.5t98.5 123t54 110.5t16 111q0 70 -26.5 127t-70.5 97t-103.5 61.5t-122.5 21.5q-137 0 -233.5 -68.5t-186.5 -197.5l-80 53q47 72 97 128t110.5 96t134.5 61.5t168 21.5q92 0 170 -29.5t134 -83t89 -125t33 -155.5v-4 q0 -74 -20.5 -138.5t-64.5 -129t-111.5 -134t-161.5 -155.5l-439 -398h811v-102h-979z" />
<glyph unicode="3" horiz-adv-x="1249" d="M111 233l82 68q86 -111 195.5 -170t250.5 -59q72 0 136.5 23.5t112.5 64.5t76.5 99t28.5 130v4q0 76 -33.5 133.5t-93 97.5t-141.5 60.5t-178 20.5h-78l-27 59l494 569h-752v101h897v-76l-485 -555q102 -6 194.5 -34t162 -77t110.5 -122.5t41 -172.5v-4q0 -94 -38 -171 t-102.5 -132t-149.5 -85t-177 -30q-176 0 -307 72t-219 186z" />
<glyph unicode="4" horiz-adv-x="1359" d="M98 430l820 1014h96v-1002h233v-92h-233v-350h-103v350h-776zM227 442h684v848z" />
<glyph unicode="5" horiz-adv-x="1239" d="M117 207l76 76q98 -98 206.5 -154.5t223.5 -56.5q86 0 156.5 27.5t120.5 76.5t79 114.5t29 141.5v4q0 74 -29 136.5t-81 107.5t-125 70.5t-159 25.5q-100 0 -178 -26.5t-145 -63.5l-82 53l41 695h805v-103h-711l-35 -536q70 35 143.5 56t174.5 21q104 0 193 -31.5 t155.5 -88t104.5 -136t38 -176.5v-4q0 -102 -38 -186t-104.5 -145.5t-157.5 -95.5t-200 -34q-147 0 -277 68t-224 164z" />
<glyph unicode="6" horiz-adv-x="1314" d="M131 678v4q0 162 41 303t117 246.5t184.5 166t241.5 60.5q123 0 221 -44t192 -122l-67 -82q-84 74 -168 113t-186 39q-109 0 -198 -54.5t-150.5 -152.5t-93.5 -235.5t-27 -301.5q31 51 71.5 99.5t95 85.5t124 59.5t157.5 22.5q98 0 187.5 -32t157 -89t108.5 -137t41 -176 v-5q0 -102 -39 -188t-106.5 -148.5t-159 -98.5t-197.5 -36q-111 0 -205 39t-160 105q-45 45 -78.5 96t-57 116.5t-35 150.5t-11.5 196zM281 432q0 -78 30.5 -143.5t85 -113.5t129 -75.5t160.5 -27.5t156.5 29.5t121 79.5t78 118t27.5 143v4q0 74 -28.5 136.5t-81 108.5 t-123 73t-156.5 27q-88 0 -162 -31t-126 -81t-81.5 -113.5t-29.5 -129.5v-4z" />
<glyph unicode="7" horiz-adv-x="1202" d="M139 1331v103h951v-78l-654 -1356h-117l652 1331h-832z" />
<glyph unicode="8" horiz-adv-x="1290" d="M113 383v4q0 63 24.5 117.5t66.5 99.5t100 80t126 57q-53 20 -101 52t-85 73t-59.5 93.5t-22.5 115.5v4q0 84 41 152.5t108.5 118t154.5 77t179 27.5t179 -27.5t155 -77t108.5 -118t40.5 -152.5v-4q0 -63 -22.5 -115.5t-59 -93.5t-85 -72.5t-101.5 -52.5 q68 -23 126 -57.5t100 -79.5t67 -99t25 -118v-4q0 -90 -41 -164t-113 -127t-169 -82.5t-210 -29.5t-210 29.5t-168.5 82.5t-112.5 127t-41 164zM223 379q0 -61 29 -115.5t83 -96.5t133 -66.5t177 -24.5t177 24.5t133.5 66.5t83 96t28.5 116v4q0 68 -33 124t-90 97t-134 63.5 t-165 22.5t-165 -22.5t-134 -63.5t-90 -97t-33 -124v-4zM272 1075q0 -66 30 -120t81 -93t118.5 -60.5t143.5 -21.5t143.5 21.5t118.5 60.5t81 93.5t30 119.5v4q0 61 -28.5 112.5t-79 88.5t-119 57.5t-146.5 20.5t-146.5 -20.5t-118.5 -57.5t-79 -88t-29 -113v-4z" />
<glyph unicode="9" horiz-adv-x="1314" d="M135 973v4q0 98 37 186t103.5 153.5t158.5 103.5t205 38q117 0 208 -40t157 -105q41 -41 74.5 -93.5t57 -120t36 -153.5t12.5 -192v-4q0 -170 -44 -311.5t-123 -245t-185.5 -161t-231.5 -57.5q-135 0 -238.5 51.5t-193.5 127.5l68 82q92 -82 180 -123t186 -41 q109 0 199 55t153.5 153.5t96 233.5t26.5 297q-31 -55 -72.5 -105.5t-97 -88t-124 -60t-152.5 -22.5q-109 0 -200 33.5t-156.5 93t-102.5 139.5t-37 172zM246 977q0 -76 28.5 -139.5t81 -109.5t123 -72.5t156.5 -26.5q92 0 165.5 31.5t126 83t80 117t27.5 132.5v4 q0 76 -30.5 142.5t-84 116t-129 78t-163.5 28.5t-159 -32t-120 -84t-75.5 -121.5t-26.5 -143.5v-4z" />
<glyph unicode=":" horiz-adv-x="491" d="M178 0v174h135v-174h-135zM178 870v174h135v-174h-135z" />
<glyph unicode="&#x3c;" d="M150 680v82l950 493v-110l-826 -422l826 -426v-111z" />
<glyph unicode="=" d="M190 438v105h930v-105h-930zM190 899v105h930v-105h-930z" />
<glyph unicode="&#x3e;" d="M211 186v111l825 422l-825 426v110l950 -493v-82z" />
<glyph unicode="?" horiz-adv-x="1093" d="M70 1208q88 109 198.5 176.5t274.5 67.5q100 0 183 -31.5t140.5 -86t89 -127t31.5 -154.5v-4q0 -96 -34.5 -169t-93 -125.5t-138.5 -83t-168 -40.5l-18 -256h-66l-27 332l11 10q205 4 315.5 92t110.5 235v5q0 63 -24 119.5t-68 98.5t-107.5 66.5t-140.5 24.5 q-123 0 -219.5 -56.5t-176.5 -154.5zM434 0v174h135v-174h-135z" />
<glyph unicode="@" horiz-adv-x="2007" d="M109 561q0 184 69.5 347t190 285t284.5 193.5t353 71.5q188 0 351 -65.5t283.5 -177t189 -259t68.5 -309.5q0 -131 -33.5 -225t-87 -154.5t-120 -89t-131.5 -28.5q-109 0 -180.5 51t-98.5 139q-31 -39 -66.5 -74t-78.5 -60.5t-93.5 -40.5t-111.5 -15q-74 0 -140.5 26.5 t-115.5 74.5t-77.5 114.5t-28.5 148.5q0 111 41.5 204t110.5 160.5t154 106.5t171 39q61 0 110 -15.5t86 -42t63.5 -59.5t45.5 -65l29 153l98 -12l-76 -432q-18 -109 -18 -148q0 -88 48 -134t136 -46q53 0 106.5 24.5t95.5 76t67.5 132.5t25.5 191q0 141 -62.5 275.5 t-173 239t-261 168t-326.5 63.5q-178 0 -330 -65.5t-262.5 -179.5t-173 -264.5t-62.5 -322.5t62.5 -322.5t174 -263t267.5 -177t340 -64.5q154 0 273.5 34.5t238.5 104.5l31 -51q-119 -72 -251 -113t-292 -41q-197 0 -363.5 71t-289.5 192.5t-191.5 283.5t-68.5 346z M641 522q0 -131 75.5 -203.5t196.5 -72.5q72 0 138.5 33.5t118 89t82 126t30.5 146.5q0 61 -20.5 112.5t-56.5 90.5t-86 60.5t-107 21.5q-70 0 -136.5 -31t-118.5 -85t-84 -128t-32 -160z" />
<glyph unicode="A" horiz-adv-x="1617" d="M90 0l668 1444h102l668 -1444h-117l-182 401h-846l-182 -401h-111zM428 498h756l-377 829z" />
<glyph unicode="B" horiz-adv-x="1478" d="M213 0v1434h592q123 0 218 -34t155 -93q92 -92 92 -226v-4q0 -74 -21.5 -129t-56.5 -96t-79 -68.5t-87 -46.5q63 -16 122.5 -43.5t103.5 -69.5t71 -98.5t27 -130.5v-4q0 -90 -37 -162.5t-104.5 -123t-162 -78t-210.5 -27.5h-623zM319 98h521q184 0 292.5 79t108.5 214v4 q0 133 -111.5 206t-324.5 73h-486v-576zM319 772h474q80 0 147.5 19.5t116.5 56.5t76.5 92t27.5 127v4q0 119 -92 191.5t-266 72.5h-484v-563z" />
<glyph unicode="C" horiz-adv-x="1511" d="M150 713v4q0 152 54 287t149.5 236t226.5 159.5t286 58.5q96 0 174 -16.5t144.5 -47t125 -72.5t113.5 -93l-75 -78q-47 45 -98.5 84t-110 66.5t-127 44t-148.5 16.5q-129 0 -239.5 -49t-191.5 -136t-127 -204t-46 -252v-4q0 -135 47 -253t128 -205t191.5 -137t239.5 -50 q156 0 270.5 57t223.5 166l72 -70q-57 -55 -118 -101t-129.5 -79t-148.5 -51.5t-174 -18.5q-154 0 -285 57.5t-226 157t-148 234.5t-53 289z" />
<glyph unicode="D" horiz-adv-x="1601" d="M213 0v1434h477q168 0 308.5 -54.5t241.5 -150.5t156.5 -226.5t55.5 -281.5v-4q0 -152 -55.5 -283t-156.5 -227t-241.5 -151.5t-308.5 -55.5h-477zM319 98h371q150 0 270.5 48.5t204.5 131t130 194.5t46 241v4q0 127 -46 239.5t-130 196.5t-204.5 133t-270.5 49h-371 v-1237z" />
<glyph unicode="E" horiz-adv-x="1372" d="M213 0v1434h1020v-99h-914v-563h822v-98h-822v-576h924v-98h-1030z" />
<glyph unicode="F" horiz-adv-x="1343" d="M213 0v1434h1010v-99h-904v-587h811v-99h-811v-649h-106z" />
<glyph unicode="G" horiz-adv-x="1605" d="M150 713v4q0 145 50 279t143 236.5t224 164t291 61.5q88 0 161 -12t135.5 -37t118.5 -59.5t109 -79.5l-69 -80q-84 74 -191.5 123t-269.5 49q-131 0 -239.5 -51t-187.5 -139.5t-122 -205t-43 -245.5v-4q0 -139 42 -258t122 -205t193.5 -135t256.5 -49q68 0 133.5 13 t124 35.5t109.5 52.5t90 62v412h-479v98h582v-553q-98 -86 -243 -150.5t-321 -64.5q-170 0 -304 58.5t-226 159t-141 234.5t-49 286z" />
<glyph unicode="H" horiz-adv-x="1556" d="M213 0v1434h106v-664h918v664h106v-1434h-106v672h-918v-672h-106z" />
<glyph unicode="I" horiz-adv-x="561" d="M227 0v1434h107v-1434h-107z" />
<glyph unicode="J" horiz-adv-x="1124" d="M76 248l88 55q33 -55 68.5 -98t77.5 -72t92.5 -43t113.5 -14q66 0 123 24.5t99 72.5t65.5 120t23.5 166v975h107v-967q0 -125 -36 -219t-95 -154q-57 -57 -132 -85.5t-161 -28.5q-160 0 -264.5 74.5t-169.5 193.5z" />
<glyph unicode="K" horiz-adv-x="1464" d="M213 0v1434h106v-942l914 942h145l-626 -633l653 -801h-139l-590 725l-357 -360v-365h-106z" />
<glyph unicode="L" horiz-adv-x="1267" d="M213 0v1434h106v-1336h842v-98h-948z" />
<glyph unicode="M" horiz-adv-x="1777" d="M213 0v1434h100l576 -848l575 848h101v-1434h-107v1245l-567 -825h-8l-568 825v-1245h-102z" />
<glyph unicode="N" horiz-adv-x="1617" d="M213 0v1434h100l990 -1248v1248h102v-1434h-80l-1010 1274v-1274h-102z" />
<glyph unicode="O" horiz-adv-x="1740" d="M150 713v4q0 147 52 281.5t146 236.5t227.5 162.5t296.5 60.5q162 0 295 -60.5t227.5 -161.5t145.5 -234.5t51 -280.5q1 -1 1 -2t-1 -2q0 -147 -52 -281.5t-146.5 -237t-228.5 -163t-296 -60.5q-164 0 -296 60.5t-226 162t-145 234.5t-51 281zM260 717q0 -133 46 -251 t127 -205t193.5 -138t245.5 -51t245 50t193 137t126 204t45 250v4q0 133 -46 250.5t-127 205t-194 138.5t-246 51t-244.5 -50t-192.5 -137.5t-126 -204t-45 -249.5v-4z" />
<glyph unicode="P" horiz-adv-x="1368" d="M213 0v1434h520q119 0 216.5 -30t168 -86t109.5 -137t39 -186v-4q0 -113 -45 -198.5t-122 -143t-178.5 -86t-213.5 -28.5h-388v-535h-106zM319 633h394q100 0 182 24.5t140.5 70.5t91 111.5t32.5 145.5v4q0 86 -31.5 150.5t-89 107.5t-137.5 65.5t-176 22.5h-406v-702z " />
<glyph unicode="Q" horiz-adv-x="1740" d="M150 713v4q0 147 52 281.5t146 236.5t227.5 162.5t296.5 60.5q162 0 295 -60.5t227.5 -161.5t145.5 -234.5t51 -280.5q2 -2 0 -4q0 -143 -48 -273.5t-140 -232.5l205 -172l-76 -82l-201 182q-92 -78 -207.5 -121t-255.5 -43q-164 0 -296 60.5t-226 162t-145 234.5 t-51 281zM260 717q0 -133 46 -251t127 -205t193.5 -138t245.5 -51q113 0 209.5 35.5t171.5 99.5l-278 237l76 84l274 -249q74 86 115 197.5t41 236.5v4q0 133 -46 250.5t-127 205t-194 138.5t-246 51t-244.5 -50t-192.5 -137.5t-126 -204t-45 -249.5v-4z" />
<glyph unicode="R" horiz-adv-x="1480" d="M213 0v1434h602q133 0 235.5 -38t168.5 -104q51 -51 79.5 -119.5t28.5 -146.5v-4q0 -90 -31.5 -160.5t-88 -122t-133.5 -83t-167 -44.5l473 -612h-135l-457 594h-4h-465v-594h-106zM319 690h484q90 0 167 22.5t132 64.5t87 102.5t32 138.5v4q0 145 -107.5 229t-304.5 84 h-490v-645z" />
<glyph unicode="S" d="M121 209l69 80q59 -55 118 -95t120 -66t129 -39t148 -13t147.5 21.5t114.5 59.5t73.5 90t26.5 113v5q0 57 -17.5 102t-63.5 82t-124 66.5t-200 54.5q-129 27 -221.5 62.5t-151 83.5t-85 111.5t-26.5 145.5v4q0 80 35 148.5t96.5 120t145.5 80t184 28.5q156 0 269.5 -43 t221.5 -131l-67 -84q-102 88 -205.5 125t-222.5 37q-80 0 -144.5 -21.5t-110.5 -58.5t-70.5 -86t-24.5 -105v-4q0 -57 17 -103t63.5 -84t128 -68.5t208.5 -57.5q250 -51 361 -144.5t111 -250.5v-4q0 -86 -36 -159t-98.5 -124t-150 -79.5t-191.5 -28.5q-172 0 -310 57 t-267 172z" />
<glyph unicode="T" horiz-adv-x="1327" d="M111 1335v99h1106v-99h-500v-1335h-107v1335h-499z" />
<glyph unicode="U" horiz-adv-x="1556" d="M190 596v838h107v-828q0 -256 128 -394t357 -138q109 0 197 32.5t150.5 98t96.5 164t34 227.5v838h106v-826q0 -154 -43 -271.5t-121 -197.5t-185.5 -121t-238.5 -41q-129 0 -236.5 40t-186.5 119t-122 193.5t-43 266.5z" />
<glyph unicode="V" horiz-adv-x="1536" d="M90 1434h119l561 -1319l563 1319h113l-631 -1444h-94z" />
<glyph unicode="W" horiz-adv-x="2256" d="M102 1434h119l451 -1276l420 1280h82l419 -1280l451 1276h110l-520 -1444h-86l-420 1245l-419 -1245h-86z" />
<glyph unicode="X" horiz-adv-x="1478" d="M104 0l572 731l-551 703h127l489 -631l488 631h125l-549 -701l569 -733h-127l-510 662l-508 -662h-125z" />
<glyph unicode="Y" horiz-adv-x="1466" d="M66 1434h133l536 -770l539 770h127l-615 -865v-569h-106v567z" />
<glyph unicode="Z" horiz-adv-x="1409" d="M139 0v59l981 1278h-946v97h1098v-60l-981 -1278h981v-96h-1133z" />
<glyph unicode="[" horiz-adv-x="880" d="M201 -266v1700h559v-78h-465v-1544h465v-78h-559z" />
<glyph unicode="\" horiz-adv-x="1024" d="M-6 1634h100l967 -1896h-100z" />
<glyph unicode="]" horiz-adv-x="880" d="M121 -188h465v1544h-465v78h559v-1700h-559v78z" />
<glyph unicode="^" horiz-adv-x="1024" d="M143 1010l324 430h90l324 -430h-109l-262 342l-262 -342h-105z" />
<glyph unicode="_" horiz-adv-x="1228" d="M-4 -238h1237v-90h-1237v90z" />
<glyph unicode="`" horiz-adv-x="1024" d="M322 1430l124 61l181 -272h-86z" />
<glyph unicode="a" horiz-adv-x="1175" d="M104 303v4q0 82 34 145.5t93.5 106.5t143.5 65.5t186 22.5q111 0 190.5 -12t155.5 -33v45q0 160 -91 240t-253 80q-96 0 -176 -23.5t-151 -60.5l-37 88q86 41 174 65.5t196 24.5q215 0 330 -115q106 -106 107 -295v-651h-99v174q-27 -37 -64.5 -72.5t-86.5 -63.5 t-111.5 -45.5t-136.5 -17.5t-145.5 20.5t-129 61.5t-93.5 102.5t-36 143.5zM211 309q0 -57 24.5 -101t66.5 -75t97.5 -47t114.5 -16q80 0 151.5 23.5t126 65.5t86 101t31.5 131v119q-66 16 -153.5 31.5t-200.5 15.5q-166 0 -255 -66.5t-89 -177.5v-4z" />
<glyph unicode="b" horiz-adv-x="1351" d="M190 0v1495h101v-684q33 51 76 98t95 82t116.5 56.5t142.5 21.5q94 0 185 -37t163 -106.5t116 -171t44 -228.5v-4q0 -127 -44 -228t-116 -172t-163 -109t-185 -38q-78 0 -143.5 20.5t-117.5 55.5t-94 80t-75 94v-225h-101zM285 520q0 -100 35.5 -183t95 -141.5t136.5 -91 t159 -32.5q86 0 160.5 30.5t130 88t87 140.5t31.5 187v4q0 102 -32.5 186.5t-89 142.5t-131 90t-156.5 32t-159 -33t-136.5 -92.5t-95 -141t-35.5 -182.5v-4z" />
<glyph unicode="c" horiz-adv-x="1169" d="M119 518v4q0 111 41 209t112.5 174t169 120t209.5 44q74 0 134.5 -15.5t111.5 -42t93 -61.5t79 -73l-72 -74q-68 70 -149.5 121t-198.5 51q-90 0 -166.5 -35t-133 -95.5t-89.5 -142t-33 -176.5v-4q0 -94 34 -177t92.5 -144.5t136 -96t167.5 -34.5q111 0 198 50t153 124 l69 -62q-80 -90 -181.5 -148.5t-244.5 -58.5q-113 0 -210 44t-168.5 118t-112.5 172.5t-41 208.5z" />
<glyph unicode="d" horiz-adv-x="1351" d="M123 518v4q0 127 44 228.5t115.5 172t163 108.5t185.5 38q78 0 143.5 -20.5t117.5 -55.5t94 -80t75 -94v676h100v-1495h-100v233q-35 -51 -77 -98t-94 -82t-116.5 -56.5t-142.5 -21.5q-94 0 -185.5 37t-163 106.5t-115.5 171t-44 228.5zM231 522q0 -102 33 -186 t89.5 -142.5t131 -90t156.5 -31.5t159 32.5t136 92t95 141.5t36 182v4q0 100 -36 183.5t-95 141.5t-136 91t-159 33q-86 0 -160.5 -31t-130 -88t-87.5 -140t-32 -188v-4z" />
<glyph unicode="e" horiz-adv-x="1196" d="M119 520v4q0 113 38 212.5t104.5 173t156.5 116.5t196 43q111 0 199 -42t150.5 -115.5t96.5 -173t34 -216.5v-21t-2 -20h-867q6 -98 43 -174t92.5 -129t126 -80.5t148.5 -27.5q123 0 208 47t150 116l70 -61q-80 -86 -181 -141.5t-251 -55.5q-102 0 -195.5 39t-164 111 t-111.5 172t-41 223zM225 571h760q-6 80 -31.5 153t-71.5 129t-114 90t-158 34q-78 0 -145.5 -31t-117.5 -85t-83 -129t-39 -161z" />
<glyph unicode="f" horiz-adv-x="741" d="M100 952v92h152v103q0 180 92 272q82 82 219 82q47 0 84 -6t72 -18v-95q-45 14 -80 20.5t-76 6.5q-211 0 -211 -264v-101h365v-92h-365v-952h-100v952h-152z" />
<glyph unicode="g" horiz-adv-x="1351" d="M123 569v4q0 113 43 205t113.5 156.5t160.5 99.5t185 35q78 0 144.5 -19.5t119.5 -51t96 -74.5t76 -88v208h100v-882q0 -115 -34.5 -203t-98.5 -152q-68 -68 -165 -103.5t-214 -35.5q-264 0 -479 160l59 82q190 -147 422 -148q90 0 165 26t129 77t85 127t31 176v151 q-35 -49 -78 -92t-96 -76.5t-119 -53t-143 -19.5q-94 0 -184.5 34.5t-161 99t-113.5 155t-43 202.5zM231 573q0 -88 33 -161.5t88.5 -126t129 -82t153.5 -29.5q82 0 159.5 28.5t138 81t97.5 125t37 162.5v4q0 90 -37 164t-97.5 126.5t-138 80t-159.5 27.5t-155.5 -27.5 t-129 -79t-87.5 -124t-32 -164.5v-5z" />
<glyph unicode="h" horiz-adv-x="1255" d="M190 0v1495h101v-645q53 92 143 155.5t234 63.5q98 0 176 -31.5t132 -89t81.5 -136.5t27.5 -173v-639h-100v621q0 162 -86 259t-246 97q-78 0 -143.5 -27.5t-114.5 -77t-76.5 -118t-27.5 -150.5v-604h-101z" />
<glyph unicode="i" horiz-adv-x="509" d="M193 1317v137h124v-137h-124zM205 0v1044h100v-1044h-100z" />
<glyph unicode="j" horiz-adv-x="509" d="M-2 -238q18 -4 41.5 -5t40.5 -1q55 0 90 36t35 110v1142h100v-1136q0 -123 -60.5 -182.5t-162.5 -59.5q-43 0 -84 8v88zM193 1317v137h124v-137h-124z" />
<glyph unicode="k" horiz-adv-x="1146" d="M190 0v1495h101v-1120l647 669h133l-457 -462l471 -582h-127l-413 510l-254 -256v-254h-101z" />
<glyph unicode="l" horiz-adv-x="509" d="M205 0v1495h100v-1495h-100z" />
<glyph unicode="m" horiz-adv-x="1947" d="M190 0v1044h101v-186q25 41 56.5 79t72.5 67.5t95 47t124 17.5q68 0 124 -18.5t99 -49t75 -71.5t54 -86q25 43 59.5 84t81 72.5t104.5 50t132 18.5q92 0 167 -31.5t127 -88t79.5 -137.5t27.5 -179v-633h-100v621q0 170 -82 263t-227 93q-66 0 -126 -24.5t-105.5 -71.5 t-72 -116t-26.5 -157v-608h-100v627q0 164 -82 257t-223 93q-70 0 -131.5 -28.5t-106.5 -80t-70.5 -119t-25.5 -147.5v-602h-101z" />
<glyph unicode="n" horiz-adv-x="1255" d="M190 0v1044h101v-194q53 92 143 155.5t234 63.5q98 0 176 -31.5t132 -89t81.5 -136.5t27.5 -173v-639h-100v621q0 162 -86 259t-246 97q-78 0 -143.5 -27.5t-114.5 -77t-76.5 -118t-27.5 -150.5v-604h-101z" />
<glyph unicode="o" d="M119 518v4q0 111 40 209t112.5 174t171 120t214.5 44q117 0 214.5 -44t169 -117.5t111.5 -172t40 -209.5v-4q0 -111 -40 -209t-112.5 -174t-171 -120t-215.5 -44t-214 44t-168.5 118t-111.5 172.5t-40 208.5zM227 522q0 -94 33 -177t91.5 -144.5t137 -96t168.5 -34.5 q92 0 171 35.5t135.5 96t88 142.5t31.5 174v4q0 94 -32.5 177t-91 144.5t-137.5 96.5t-169 35q-92 0 -171 -36t-135 -96.5t-88 -142.5t-32 -174v-4z" />
<glyph unicode="p" horiz-adv-x="1351" d="M190 -328v1372h101v-233q33 51 76 98t95 82t116.5 56.5t142.5 21.5q94 0 185 -37t163 -106.5t116 -171t44 -228.5v-4q0 -127 -44 -228t-116 -172t-163 -109t-185 -38q-78 0 -143.5 20.5t-117.5 55.5t-94 80t-75 94v-553h-101zM285 520q0 -100 35.5 -183t95 -141.5 t136.5 -91t159 -32.5q86 0 160.5 30.5t130 88t87 140.5t31.5 187v4q0 102 -32.5 186.5t-89 142.5t-131 90t-156.5 32t-159 -33t-136.5 -92.5t-95 -141t-35.5 -182.5v-4z" />
<glyph unicode="q" horiz-adv-x="1351" d="M123 518v4q0 127 44 228.5t115.5 172t163 108.5t185.5 38q78 0 143.5 -20.5t117.5 -55.5t94 -80t75 -94v225h100v-1372h-100v561q-35 -51 -77 -98t-94 -82t-116.5 -56.5t-142.5 -21.5q-94 0 -185.5 37t-163 106.5t-115.5 171t-44 228.5zM231 522q0 -102 33 -186 t89.5 -142.5t131 -90t156.5 -31.5t159 32.5t136 92t95 141.5t36 182v4q0 100 -36 183.5t-95 141.5t-136 91t-159 33q-86 0 -160.5 -31t-130 -88t-87.5 -140t-32 -188v-4z" />
<glyph unicode="r" horiz-adv-x="819" d="M190 0v1044h101v-296q31 70 78 129t107 101t130 64q64 20 135 19h13v-111h-11q-90 0 -172 -33.5t-144 -100t-99 -164t-37 -224.5v-428h-101z" />
<glyph unicode="s" horiz-adv-x="1017" d="M100 131l60 80q86 -66 180 -101.5t195 -35.5q106 0 178.5 53t72.5 145v4q0 45 -22.5 78t-61 57.5t-88 41t-104.5 32.5q-63 18 -128 39t-116 52.5t-82.5 78.5t-31.5 117v4q0 63 25.5 115.5t70.5 91.5t108.5 60.5t139.5 21.5q94 0 193 -30.5t177 -84.5l-53 -84 q-72 47 -155 76t-166 29q-109 0 -173.5 -52.5t-64.5 -130.5v-4q0 -43 24.5 -74.5t64.5 -54t93 -40t109 -33.5q63 -18 124.5 -40t110.5 -55.5t79 -81t30 -116.5v-4q0 -70 -27.5 -126.5t-77 -96t-115 -61t-141.5 -21.5q-115 0 -229.5 41.5t-198.5 109.5z" />
<glyph unicode="t" horiz-adv-x="819" d="M94 952v92h152v334h100v-334h367v-92h-367v-673q0 -113 58.5 -158t150.5 -45q39 0 74 8t80 29v-95q-41 -18 -81 -27t-89 -9q-61 0 -114.5 16t-93.5 52t-62.5 90.5t-22.5 127.5v684h-152z" />
<glyph unicode="u" horiz-adv-x="1255" d="M170 406v638h100v-620q0 -162 86 -259t246 -97q76 0 142.5 27.5t115.5 76.5t77 117.5t28 150.5v604h100v-1044h-100v195q-53 -92 -143.5 -156t-233.5 -64q-98 0 -176 32t-132.5 89.5t-82 136t-27.5 173.5z" />
<glyph unicode="v" horiz-adv-x="1191" d="M84 1044h117l395 -931l399 931h113l-469 -1052h-86z" />
<glyph unicode="w" horiz-adv-x="1763" d="M100 1044h113l315 -917l316 922h80l315 -922l315 917h109l-383 -1052h-86l-311 895l-314 -895h-86z" />
<glyph unicode="x" horiz-adv-x="1167" d="M92 0l428 532l-411 512h124l353 -442l352 442h121l-412 -509l428 -535h-125l-368 465l-369 -465h-121z" />
<glyph unicode="y" horiz-adv-x="1204" d="M80 1044h117l434 -933l377 933h110l-452 -1081q-70 -164 -153 -230.5t-196 -66.5q-59 0 -106 11.5t-100 33.5l34 88q41 -20 80 -29.5t99 -9.5q41 0 75.5 12.5t65.5 42t59.5 77t57.5 114.5z" />
<glyph unicode="z" horiz-adv-x="1134" d="M119 0v57l753 897h-725v90h875v-57l-754 -897h754v-90h-903z" />
<glyph unicode="{" horiz-adv-x="983" d="M121 549v78h53q72 0 120 18.5t75.5 52t39 81.5t11.5 108v162q0 80 16.5 145.5t62.5 116.5t131 89t222 64l14 -65q-117 -31 -186.5 -61.5t-104 -71.5t-45 -96.5t-10.5 -133.5v-153q0 -68 -15.5 -117t-43 -84t-66.5 -57.5t-88 -36.5q51 -16 91 -39t67 -56.5t41 -83 t14 -116.5v-154q0 -78 10.5 -133t45 -96t104.5 -72t186 -61l-14 -66q-137 27 -222 65t-131 89t-62.5 116.5t-16.5 145.5v162q0 59 -11.5 107t-39 82t-75.5 52.5t-120 18.5h-53z" />
<glyph unicode="|" horiz-adv-x="585" d="M248 -262v1896h90v-1896h-90z" />
<glyph unicode="}" horiz-adv-x="983" d="M117 -223q117 31 186.5 61.5t104 71.5t45 96t10.5 133v154q0 68 15.5 117t43 83.5t66.5 57t88 37.5q-51 16 -91 38.5t-66.5 56.5t-41 83t-14.5 117v153q0 78 -10.5 133.5t-45 96.5t-104.5 71.5t-186 61.5l14 65q137 -27 222 -64.5t131 -88.5t62.5 -117t16.5 -145v-162 q0 -59 11.5 -107.5t39 -82t75.5 -52t120 -18.5h53v-78h-53q-72 0 -120 -18.5t-75.5 -52.5t-39 -82t-11.5 -107v-162q0 -80 -16.5 -145.5t-62.5 -116.5t-131 -89t-222 -65z" />
<glyph unicode="~" horiz-adv-x="942" d="M168 514q29 111 70 151t102 40q29 0 63.5 -13.5t70.5 -29t68.5 -28.5t59.5 -13q37 0 58.5 21.5t44.5 80.5l69 -18q-29 -111 -69.5 -151t-102.5 -40q-29 0 -63.5 13.5t-70.5 28.5t-68.5 28.5t-59.5 13.5q-37 0 -58.5 -21.5t-43.5 -80.5z" />
<glyph unicode="&#xa1;" horiz-adv-x="516" d="M190 1260v174h136v-174h-136zM199 0v143l30 916h58l30 -916v-143h-118z" />
<glyph unicode="&#xa2;" horiz-adv-x="1189" d="M127 723v4q0 111 41 209t112.5 174t169 120t209.5 44h31l33 172h102l-37 -186q94 -23 163 -71t126 -108l-71 -73q-51 53 -108.5 96t-133.5 61l-170 -884q33 -6 72 -7q111 0 197.5 50.5t152.5 124.5l69 -62q-80 -90 -181 -148.5t-245 -58.5q-41 0 -79 6l-39 -198h-103 l45 223q-80 27 -145.5 78t-112.5 118.5t-72.5 148.5t-25.5 167zM236 727q0 -145 75.5 -259t196.5 -163l168 875h-19q-90 0 -166.5 -35t-133 -95.5t-89 -142.5t-32.5 -176v-4z" />
<glyph unicode="&#xa3;" horiz-adv-x="1318" d="M143 0v51l176 41v533h-176v98h176v242q0 117 34 211t100 159q57 57 135 88t172 31q80 0 143.5 -16.5t115.5 -46t94 -69.5t77 -85l-82 -63q-31 39 -65.5 72.5t-76.5 58t-93.5 39t-114.5 14.5q-143 0 -232 -88q-102 -102 -102 -303v-244h610v-98h-610v-529h766v-96h-1047z " />
<glyph unicode="&#xa4;" horiz-adv-x="1474" d="M121 502v98h170q-6 55 -6 113v4q0 35 3 70.5t7 64.5h-174v98h192q27 111 79 204t124 160.5t160 105.5t186 38q90 0 163 -21.5t132.5 -60.5t107.5 -91t89 -114l-82 -55q-41 59 -84 105.5t-92 78t-106.5 48t-131.5 16.5q-78 0 -146.5 -30.5t-126 -86t-100.5 -131.5 t-67 -166h581v-98h-600q-4 -29 -7 -62.5t-3 -68.5v-4q0 -59 6 -117h604v-98h-585q25 -96 68.5 -176t104 -136.5t135.5 -88t161 -31.5q133 0 227 72.5t170 189.5l78 -51q-41 -63 -90 -119t-107.5 -97.5t-128 -65.5t-155.5 -24q-106 0 -198.5 38t-167.5 107.5t-127 167 t-79 214.5h-184z" />
<glyph unicode="&#xa5;" horiz-adv-x="1404" d="M66 1434h129l510 -764l512 764h122l-551 -793h402v-92h-436v-201h436v-92h-436v-256h-103v256h-436v92h436v201h-436v92h399z" />
<glyph unicode="&#xa7;" horiz-adv-x="1294" d="M133 743v5q0 92 82 153.5t221 77.5q-80 35 -128 89t-48 126v4q0 117 98.5 186.5t262.5 69.5q137 0 257.5 -54t206.5 -140l-77 -74q-72 72 -173.5 120t-224.5 48t-180 -46t-57 -112v-4q0 -33 19.5 -61.5t63.5 -55t115.5 -51.5t176.5 -49q115 -29 193.5 -57.5t127.5 -62.5 t70.5 -75t21.5 -90v-4q0 -92 -82 -153.5t-221 -77.5q80 -35 128 -89.5t48 -125.5v-4q0 -117 -98 -186.5t-262 -69.5q-137 0 -258 54t-207 140l78 74q72 -72 173 -120t224 -48t180.5 46t57.5 112v4q0 33 -19.5 61.5t-63.5 54t-116 51t-176 50.5q-115 27 -194 56.5t-128 63 t-70.5 74.5t-21.5 90zM240 752q0 -29 14 -54.5t50 -50t98.5 -48.5t158.5 -48q72 -18 129.5 -25.5t100.5 -7.5q59 0 108 13.5t84 36t53.5 51t18.5 59.5v4q0 27 -14.5 53.5t-50.5 51t-98.5 48t-158.5 48.5q-74 18 -130 25t-99 7q-59 0 -108.5 -13t-84.5 -35.5t-53 -51.5 t-18 -59v-4z" />
<glyph unicode="&#xa8;" horiz-adv-x="1024" d="M274 1219v163h142v-163h-142zM608 1219v163h142v-163h-142z" />
<glyph unicode="&#xa9;" horiz-adv-x="1699" d="M109 713v4q0 152 57 286t157.5 235t236.5 160.5t292 59.5t291 -58.5t234.5 -158.5t156.5 -234.5t57 -285.5v-4q0 -152 -57 -286t-157.5 -235.5t-236.5 -161t-292 -59.5t-291 58.5t-234.5 159t-156.5 234.5t-57 286zM170 713q0 -141 51 -265t142.5 -216.5t215.5 -145.5 t269 -53t270 54t216 147.5t143.5 217t52.5 265.5v4q0 141 -51.5 265t-142.5 216t-215 145.5t-269 53.5t-270 -54.5t-216.5 -147.5t-143.5 -217t-52 -265v-4zM485 725v4q0 78 29 148.5t80 124t118.5 84t147.5 30.5q100 0 166 -36t123 -89l-62 -63q-45 43 -101 74.5t-128 31.5 q-61 0 -112.5 -23.5t-89.5 -65.5t-59.5 -97t-21.5 -117v-4q0 -61 23 -117.5t60.5 -97.5t90 -65.5t111.5 -24.5q76 0 129 27.5t107 78.5l57 -57q-59 -59 -127 -95t-168 -36q-80 0 -147.5 30.5t-117.5 83t-79 122t-29 149.5z" />
<glyph unicode="&#xaa;" horiz-adv-x="798" d="M127 600v82h516v-82h-516zM133 1026v4q0 92 70.5 141.5t183.5 49.5q55 0 95 -6.5t75 -16.5v10q0 78 -46 118t-124 40q-49 0 -91 -13.5t-89 -35.5l-27 69q53 25 102.5 39.5t108.5 14.5q119 0 184 -66q57 -57 58 -164v-356h-76v84q-35 -45 -85 -70.5t-116 -25.5 q-41 0 -80.5 11t-71.5 34.5t-51.5 57.5t-19.5 81zM215 1030q0 -55 43 -85t102 -30q39 0 75 11.5t62.5 32t43 50t16.5 64.5v55q-35 10 -76 16.5t-98 6.5q-78 0 -123 -33t-45 -84v-4z" />
<glyph unicode="&#xab;" horiz-adv-x="1054" d="M104 514v16l328 428l76 -49l-281 -385l281 -389l-76 -49zM522 514v16l328 428l76 -49l-281 -385l281 -389l-76 -49z" />
<glyph unicode="&#xad;" horiz-adv-x="835" d="M143 551v115h549v-115h-549z" />
<glyph unicode="&#xae;" horiz-adv-x="1699" d="M109 713v4q0 152 57 286t157.5 235t236.5 160.5t292 59.5t291 -58.5t234.5 -158.5t156.5 -234.5t57 -285.5v-4q0 -152 -57 -286t-157.5 -235.5t-236.5 -161t-292 -59.5t-291 58.5t-234.5 159t-156.5 234.5t-57 286zM170 713q0 -141 51 -265t142.5 -216.5t215.5 -145.5 t269 -53t270 54t216 147.5t143.5 217t52.5 265.5v4q0 141 -51.5 265t-142.5 216t-215 145.5t-269 53.5t-270 -54.5t-216.5 -147.5t-143.5 -217t-52 -265v-4zM565 362v750h336q70 0 127 -20.5t92 -55.5q25 -25 41.5 -60.5t16.5 -78.5v-4q0 -92 -56.5 -145.5t-148.5 -69.5 l250 -316h-115l-238 302h-4h-213v-302h-88zM653 745h234q86 0 142 36t56 108v4q0 61 -50 98t-138 37h-244v-283z" />
<glyph unicode="&#xb0;" horiz-adv-x="921" d="M152 1143v4q0 59 25.5 113.5t68.5 95.5t98 65.5t117 24.5q61 0 116.5 -24.5t98.5 -65.5t68.5 -95.5t25.5 -113.5v-4q0 -59 -25.5 -113.5t-68.5 -95.5t-98.5 -65.5t-116.5 -24.5t-116.5 24.5t-98.5 65.5t-68.5 95t-25.5 114zM254 1143q0 -41 15.5 -79t43 -66.5t65.5 -46 t83 -17.5t83 17.5t65.5 46t43 66.5t15.5 79v4q0 41 -15.5 79t-43 66.5t-65.5 46t-83 17.5t-83 -17.5t-65.5 -46t-43 -66.5t-15.5 -79v-4z" />
<glyph unicode="&#xb1;" horiz-adv-x="1228" d="M92 240l86 63q80 -106 190.5 -168.5t256.5 -62.5q78 0 144.5 21.5t115.5 61.5t76.5 96t27.5 124v4q0 139 -110.5 218t-313.5 79h-143v94h145q82 0 151.5 20.5t121 58.5t81 93t29.5 127v4q0 61 -24.5 114.5t-69.5 92.5t-108.5 60.5t-141.5 21.5q-131 0 -226 -56.5 t-173 -162.5l-82 49q82 121 200.5 193.5t284.5 72.5q98 0 180 -28.5t142.5 -80t94.5 -121t34 -151.5v-4q0 -74 -23.5 -130t-62.5 -97t-88 -68.5t-99 -44.5q66 -18 123.5 -50t99.5 -75t65.5 -100t23.5 -127v-4q0 -84 -36 -157t-99.5 -127t-151.5 -86t-192 -32 q-174 0 -308.5 75t-220.5 190z" />
<glyph unicode="&#xb4;" horiz-adv-x="1024" d="M397 1219l181 272l124 -61l-219 -211h-86z" />
<glyph unicode="&#xb6;" horiz-adv-x="983" d="M109 999v5q0 100 38.5 180t109.5 135t168 85t214 30h152v-1434h-109v567h-12q-119 0 -221.5 29t-178 84t-118.5 135t-43 184z" />
<glyph unicode="&#xb8;" horiz-adv-x="1024" d="M332 -250l184 270h88l-160 -323z" />
<glyph unicode="&#xba;" horiz-adv-x="798" d="M104 600v82h590v-82h-590zM104 1139v4q0 61 23 115.5t61.5 95.5t93 65.5t119.5 24.5q63 0 117.5 -23.5t93.5 -64.5t60.5 -95.5t21.5 -113.5v-4q0 -61 -22.5 -115.5t-61.5 -95.5t-94.5 -65.5t-118.5 -24.5t-117.5 23.5t-93.5 64.5t-60.5 95t-21.5 114zM193 1143 q0 -47 16 -87t44 -70t65.5 -47t82.5 -17q92 0 148.5 63.5t56.5 153.5v4q0 45 -16.5 86t-44 70.5t-65.5 47t-83 17.5q-92 0 -148 -63.5t-56 -153.5v-4z" />
<glyph unicode="&#xbb;" horiz-adv-x="1054" d="M129 135l281 385l-281 389l76 49l327 -428v-16l-327 -428zM547 135l280 385l-280 389l76 49l327 -428v-16l-327 -428z" />
<glyph unicode="&#xbf;" horiz-adv-x="1093" d="M106 381v4q0 94 35 168t93.5 126t137.5 83t169 41l18 256h66l26 -332l-10 -10q-205 -4 -315.5 -92t-110.5 -236v-4q0 -63 23.5 -119.5t67.5 -98.5t107.5 -66.5t141.5 -24.5q123 0 219 56t176 155l74 -62q-43 -55 -92 -99t-106.5 -77t-125 -50t-149.5 -17 q-102 0 -184 31.5t-139.5 86t-89.5 127t-32 154.5zM524 1260v174h135v-174h-135z" />
<glyph unicode="&#xc0;" horiz-adv-x="1617" d="M90 0l668 1444h102l668 -1444h-117l-182 401h-846l-182 -401h-111zM428 498h756l-377 829zM539 1778l125 61l180 -272h-86z" />
<glyph unicode="&#xc1;" horiz-adv-x="1617" d="M90 0l668 1444h102l668 -1444h-117l-182 401h-846l-182 -401h-111zM428 498h756l-377 829zM774 1567l180 272l125 -61l-219 -211h-86z" />
<glyph unicode="&#xc2;" horiz-adv-x="1617" d="M90 0l668 1444h102l668 -1444h-117l-182 401h-846l-182 -401h-111zM428 498h756l-377 829zM563 1556l205 250h82l205 -250h-97l-151 140l-152 -140h-92z" />
<glyph unicode="&#xc3;" horiz-adv-x="1617" d="M90 0l668 1444h102l668 -1444h-117l-182 401h-846l-182 -401h-111zM428 498h756l-377 829zM506 1567q29 111 69.5 150.5t102.5 39.5q29 0 63.5 -13t70.5 -28.5t68.5 -29t59.5 -13.5q37 0 58.5 21.5t43.5 81.5l70 -19q-29 -111 -70 -150.5t-102 -39.5q-29 0 -63.5 13 t-70.5 28.5t-68.5 29t-59.5 13.5q-37 0 -58.5 -21.5t-44.5 -81.5z" />
<glyph unicode="&#xc4;" horiz-adv-x="1617" d="M90 0l668 1444h102l668 -1444h-117l-182 401h-846l-182 -401h-111zM428 498h756l-377 829zM571 1567v164h142v-164h-142zM905 1567v164h142v-164h-142z" />
<glyph unicode="&#xc5;" horiz-adv-x="1617" d="M90 0l641 1386q-53 23 -88 70t-35 107v4q0 39 16.5 73.5t44 60t63.5 41t77 15.5q39 0 76 -15.5t64.5 -41t44 -60t16.5 -73.5v-4q0 -59 -35 -105.5t-88 -68.5l641 -1389h-117l-182 401h-846l-182 -401h-111zM428 498h756l-377 829zM682 1563q0 -51 38 -88t89 -37t89 36.5 t38 88.5v4q0 51 -37 88t-90 37t-90 -37t-37 -88v-4z" />
<glyph unicode="&#xc6;" horiz-adv-x="2140" d="M41 0l868 1434h1092v-99h-883v-563h791v-98h-791v-576h893v-98h-999v401h-615l-241 -401h-115zM455 498h557v839h-54z" />
<glyph unicode="&#xc7;" horiz-adv-x="1511" d="M150 713v4q0 152 54 287t149.5 236t226.5 159.5t286 58.5q96 0 174 -16.5t144.5 -47t125 -72.5t113.5 -93l-75 -78q-47 45 -98.5 84t-110 66.5t-127 44t-148.5 16.5q-129 0 -239.5 -49t-191.5 -136t-127 -204t-46 -252v-4q0 -135 47 -253t128 -205t191.5 -137t239.5 -50 q156 0 270.5 57t223.5 166l72 -70q-55 -53 -112.5 -98t-123.5 -78t-141.5 -52.5t-165.5 -21.5l-137 -278l-113 53l156 227q-141 12 -259 75t-204 161t-134 226t-48 274z" />
<glyph unicode="&#xc8;" horiz-adv-x="1372" d="M213 0v1434h1020v-99h-914v-563h822v-98h-822v-576h924v-98h-1030zM496 1778l125 61l180 -272h-86z" />
<glyph unicode="&#xc9;" horiz-adv-x="1372" d="M213 0v1434h1020v-99h-914v-563h822v-98h-822v-576h924v-98h-1030zM633 1567l180 272l125 -61l-219 -211h-86z" />
<glyph unicode="&#xca;" horiz-adv-x="1372" d="M213 0v1434h1020v-99h-914v-563h822v-98h-822v-576h924v-98h-1030zM469 1567l205 250h82l205 -250h-97l-151 139l-152 -139h-92z" />
<glyph unicode="&#xcb;" horiz-adv-x="1372" d="M213 0v1434h1020v-99h-914v-563h822v-98h-822v-576h924v-98h-1030zM477 1567v164h141v-164h-141zM811 1567v164h141v-164h-141z" />
<glyph unicode="&#xcc;" horiz-adv-x="561" d="M14 1778l125 61l180 -272h-86zM227 0v1434h107v-1434h-107z" />
<glyph unicode="&#xcd;" horiz-adv-x="561" d="M227 0v1434h107v-1434h-107zM242 1567l180 272l125 -61l-219 -211h-86z" />
<glyph unicode="&#xce;" horiz-adv-x="561" d="M37 1567l205 250h82l204 -250h-96l-151 139l-152 -139h-92zM227 0v1434h107v-1434h-107z" />
<glyph unicode="&#xcf;" horiz-adv-x="561" d="M45 1567v164h141v-164h-141zM227 0v1434h107v-1434h-107zM379 1567v164h141v-164h-141z" />
<glyph unicode="&#xd0;" horiz-adv-x="1662" d="M121 672v98h153v664h478q168 0 308 -54.5t241.5 -150.5t156.5 -226.5t55 -281.5v-4q0 -152 -55 -283t-156.5 -227t-241.5 -151.5t-308 -55.5h-478v672h-153zM381 98h371q150 0 270.5 48.5t204.5 131t130 194.5t46 241v4q0 127 -46 239.5t-130 196.5t-205 133t-270 49 h-371v-565h475v-98h-475v-574z" />
<glyph unicode="&#xd1;" horiz-adv-x="1617" d="M213 0v1434h100l990 -1248v1248h102v-1434h-80l-1010 1274v-1274h-102zM506 1567q29 111 69.5 150.5t102.5 39.5q29 0 63.5 -13t70.5 -28.5t68.5 -29t59.5 -13.5q37 0 58.5 21.5t43.5 81.5l70 -19q-29 -111 -70 -150.5t-102 -39.5q-29 0 -63.5 13t-70.5 28.5t-68.5 29 t-59.5 13.5q-37 0 -58.5 -21.5t-44.5 -81.5z" />
<glyph unicode="&#xd2;" horiz-adv-x="1740" d="M150 713v4q0 147 52 281.5t146 236.5t227.5 162.5t296.5 60.5q162 0 295 -60.5t227.5 -161.5t145.5 -234.5t51 -280.5q2 -2 0 -4q0 -147 -52 -281.5t-146.5 -237t-228.5 -163t-296 -60.5q-164 0 -296 60.5t-226 162t-145 234.5t-51 281zM260 717q0 -133 46 -251t127 -205 t193.5 -138t245.5 -51t245 50t193 137t126 204t45 250v4q0 133 -46 250.5t-127 205t-194 138.5t-246 51t-244.5 -50t-192.5 -137.5t-126 -204t-45 -249.5v-4zM598 1778l125 61l180 -272h-86z" />
<glyph unicode="&#xd3;" horiz-adv-x="1740" d="M150 713v4q0 147 52 281.5t146 236.5t227.5 162.5t296.5 60.5q162 0 295 -60.5t227.5 -161.5t145.5 -234.5t51 -280.5q2 -2 0 -4q0 -147 -52 -281.5t-146.5 -237t-228.5 -163t-296 -60.5q-164 0 -296 60.5t-226 162t-145 234.5t-51 281zM260 717q0 -133 46 -251t127 -205 t193.5 -138t245.5 -51t245 50t193 137t126 204t45 250v4q0 133 -46 250.5t-127 205t-194 138.5t-246 51t-244.5 -50t-192.5 -137.5t-126 -204t-45 -249.5v-4zM838 1567l180 272l125 -61l-219 -211h-86z" />
<glyph unicode="&#xd4;" horiz-adv-x="1740" d="M150 713v4q0 147 52 281.5t146 236.5t227.5 162.5t296.5 60.5q162 0 295 -60.5t227.5 -161.5t145.5 -234.5t51 -280.5q2 -2 0 -4q0 -147 -52 -281.5t-146.5 -237t-228.5 -163t-296 -60.5q-164 0 -296 60.5t-226 162t-145 234.5t-51 281zM260 717q0 -133 46 -251t127 -205 t193.5 -138t245.5 -51t245 50t193 137t126 204t45 250v4q0 133 -46 250.5t-127 205t-194 138.5t-246 51t-244.5 -50t-192.5 -137.5t-126 -204t-45 -249.5v-4zM625 1567l204 250h82l205 -250h-96l-152 139l-151 -139h-92z" />
<glyph unicode="&#xd5;" horiz-adv-x="1740" d="M150 713v4q0 147 52 281.5t146 236.5t227.5 162.5t296.5 60.5q162 0 295 -60.5t227.5 -161.5t145.5 -234.5t51 -280.5q2 -2 0 -4q0 -147 -52 -281.5t-146.5 -237t-228.5 -163t-296 -60.5q-164 0 -296 60.5t-226 162t-145 234.5t-51 281zM260 717q0 -133 46 -251t127 -205 t193.5 -138t245.5 -51t245 50t193 137t126 204t45 250v4q0 133 -46 250.5t-127 205t-194 138.5t-246 51t-244.5 -50t-192.5 -137.5t-126 -204t-45 -249.5v-4zM567 1567q29 111 70 150.5t102 39.5q29 0 64 -13t70.5 -28.5t68.5 -29t59 -13.5q37 0 58.5 21.5t44.5 81.5l70 -19 q-29 -111 -70 -150.5t-103 -39.5q-29 0 -63.5 13t-70.5 28.5t-68.5 29t-59.5 13.5q-37 0 -58.5 -21.5t-43.5 -81.5z" />
<glyph unicode="&#xd6;" horiz-adv-x="1740" d="M150 713v4q0 147 52 281.5t146 236.5t227.5 162.5t296.5 60.5q162 0 295 -60.5t227.5 -161.5t145.5 -234.5t51 -280.5q2 -2 0 -4q0 -147 -52 -281.5t-146.5 -237t-228.5 -163t-296 -60.5q-164 0 -296 60.5t-226 162t-145 234.5t-51 281zM260 717q0 -133 46 -251t127 -205 t193.5 -138t245.5 -51t245 50t193 137t126 204t45 250v4q0 133 -46 250.5t-127 205t-194 138.5t-246 51t-244.5 -50t-192.5 -137.5t-126 -204t-45 -249.5v-4zM633 1567v164h141v-164h-141zM967 1567v164h141v-164h-141z" />
<glyph unicode="&#xd8;" horiz-adv-x="1740" d="M133 -10l205 217q-92 102 -140 232t-48 274v4q0 147 52 281.5t146 236.5t227.5 162.5t296.5 60.5q141 0 258 -45t209 -125l146 156h123l-205 -217q92 -102 140 -232.5t48 -273.5q2 -2 0 -4q0 -147 -52 -281.5t-146.5 -237t-228.5 -163t-296 -60.5q-141 0 -257.5 45.5 t-209.5 122.5l-145 -153h-123zM260 717q0 -123 40 -233.5t112 -196.5l858 921q-78 72 -180.5 113t-221.5 41q-133 0 -244.5 -50t-192.5 -137.5t-126 -204t-45 -249.5v-4zM471 225q78 -72 180 -112.5t221 -40.5q133 0 245 50t193 137t126 204t45 250v4q0 123 -40 233.5 t-112 196.5z" />
<glyph unicode="&#xd9;" horiz-adv-x="1556" d="M190 596v838h107v-828q0 -256 128 -394t357 -138q109 0 197 32.5t150.5 98t96.5 164t34 227.5v838h106v-826q0 -154 -43 -271.5t-121 -197.5t-185.5 -121t-238.5 -41q-129 0 -236.5 40t-186.5 119t-122 193.5t-43 266.5zM524 1767l125 62l180 -273h-86z" />
<glyph unicode="&#xda;" horiz-adv-x="1556" d="M190 596v838h107v-828q0 -256 128 -394t357 -138q109 0 197 32.5t150.5 98t96.5 164t34 227.5v838h106v-826q0 -154 -43 -271.5t-121 -197.5t-185.5 -121t-238.5 -41q-129 0 -236.5 40t-186.5 119t-122 193.5t-43 266.5zM727 1556l180 273l125 -62l-219 -211h-86z" />
<glyph unicode="&#xdb;" horiz-adv-x="1556" d="M190 596v838h107v-828q0 -256 128 -394t357 -138q109 0 197 32.5t150.5 98t96.5 164t34 227.5v838h106v-826q0 -154 -43 -271.5t-121 -197.5t-185.5 -121t-238.5 -41q-129 0 -236.5 40t-186.5 119t-122 193.5t-43 266.5zM532 1556l205 250h82l205 -250h-96l-152 140 l-151 -140h-93z" />
<glyph unicode="&#xdc;" horiz-adv-x="1556" d="M190 596v838h107v-828q0 -256 128 -394t357 -138q109 0 197 32.5t150.5 98t96.5 164t34 227.5v838h106v-826q0 -154 -43 -271.5t-121 -197.5t-185.5 -121t-238.5 -41q-129 0 -236.5 40t-186.5 119t-122 193.5t-43 266.5zM541 1556v164h141v-164h-141zM874 1556v164h142 v-164h-142z" />
<glyph unicode="&#xdd;" horiz-adv-x="1466" d="M66 1434h133l536 -770l539 770h127l-615 -865v-569h-106v567zM696 1556l181 273l124 -62l-219 -211h-86z" />
<glyph unicode="&#xde;" horiz-adv-x="1378" d="M213 0v1434h106v-260h414q119 0 216.5 -30t168 -86.5t109.5 -137t39 -185.5v-4q0 -113 -45 -199t-122 -143t-178.5 -87t-213.5 -30h-388v-272h-106zM319 371h394q100 0 182 25.5t140.5 71.5t91 111.5t32.5 145.5v4q0 86 -31.5 150.5t-89 107.5t-137.5 65.5t-176 22.5 h-406v-704z" />
<glyph unicode="&#xdf;" horiz-adv-x="1269" d="M190 0v1024q0 106 32 195.5t90.5 154t141.5 100t187 35.5q92 0 167 -27.5t129 -75.5t83 -113.5t29 -141.5v-4q0 -74 -28 -136.5t-73 -111.5t-103.5 -85t-117.5 -56q80 -14 154.5 -42t132 -73t92.5 -107.5t35 -144.5v-4q0 -92 -38 -164.5t-109.5 -123t-173 -77 t-228.5 -26.5v88q205 4 322.5 79t117.5 220v4q0 139 -117.5 215t-322.5 98v84q76 23 139.5 55.5t109.5 77t72.5 100.5t26.5 126v4q0 57 -22.5 107.5t-62.5 85t-96.5 55t-123.5 20.5q-74 0 -137.5 -27.5t-109.5 -77.5t-71.5 -123t-25.5 -163v-1024h-101z" />
<glyph unicode="&#xe0;" horiz-adv-x="1175" d="M104 303v4q0 82 34 145.5t93.5 106.5t143.5 65.5t186 22.5q111 0 190.5 -12t155.5 -33v45q0 160 -91 240t-253 80q-96 0 -176 -23.5t-151 -60.5l-37 88q86 41 174 65.5t196 24.5q215 0 330 -115q106 -106 107 -295v-651h-99v174q-27 -37 -64.5 -72.5t-86.5 -63.5 t-111.5 -45.5t-136.5 -17.5t-145.5 20.5t-129 61.5t-93.5 102.5t-36 143.5zM211 309q0 -57 24.5 -101t66.5 -75t97.5 -47t114.5 -16q80 0 151.5 23.5t126 65.5t86 101t31.5 131v119q-66 16 -153.5 31.5t-200.5 15.5q-166 0 -255 -66.5t-89 -177.5v-4zM322 1430l124 61 l181 -272h-86z" />
<glyph unicode="&#xe1;" horiz-adv-x="1175" d="M104 303v4q0 82 34 145.5t93.5 106.5t143.5 65.5t186 22.5q111 0 190.5 -12t155.5 -33v45q0 160 -91 240t-253 80q-96 0 -176 -23.5t-151 -60.5l-37 88q86 41 174 65.5t196 24.5q215 0 330 -115q106 -106 107 -295v-651h-99v174q-27 -37 -64.5 -72.5t-86.5 -63.5 t-111.5 -45.5t-136.5 -17.5t-145.5 20.5t-129 61.5t-93.5 102.5t-36 143.5zM211 309q0 -57 24.5 -101t66.5 -75t97.5 -47t114.5 -16q80 0 151.5 23.5t126 65.5t86 101t31.5 131v119q-66 16 -153.5 31.5t-200.5 15.5q-166 0 -255 -66.5t-89 -177.5v-4zM524 1219l181 272 l124 -61l-219 -211h-86z" />
<glyph unicode="&#xe2;" horiz-adv-x="1175" d="M104 303v4q0 82 34 145.5t93.5 106.5t143.5 65.5t186 22.5q111 0 190.5 -12t155.5 -33v45q0 160 -91 240t-253 80q-96 0 -176 -23.5t-151 -60.5l-37 88q86 41 174 65.5t196 24.5q215 0 330 -115q106 -106 107 -295v-651h-99v174q-27 -37 -64.5 -72.5t-86.5 -63.5 t-111.5 -45.5t-136.5 -17.5t-145.5 20.5t-129 61.5t-93.5 102.5t-36 143.5zM211 309q0 -57 24.5 -101t66.5 -75t97.5 -47t114.5 -16q80 0 151.5 23.5t126 65.5t86 101t31.5 131v119q-66 16 -153.5 31.5t-200.5 15.5q-166 0 -255 -66.5t-89 -177.5v-4zM348 1219l205 249h82 l205 -249h-97l-151 139l-152 -139h-92z" />
<glyph unicode="&#xe3;" horiz-adv-x="1175" d="M104 303v4q0 82 34 145.5t93.5 106.5t143.5 65.5t186 22.5q111 0 190.5 -12t155.5 -33v45q0 160 -91 240t-253 80q-96 0 -176 -23.5t-151 -60.5l-37 88q86 41 174 65.5t196 24.5q215 0 330 -115q106 -106 107 -295v-651h-99v174q-27 -37 -64.5 -72.5t-86.5 -63.5 t-111.5 -45.5t-136.5 -17.5t-145.5 20.5t-129 61.5t-93.5 102.5t-36 143.5zM211 309q0 -57 24.5 -101t66.5 -75t97.5 -47t114.5 -16q80 0 151.5 23.5t126 65.5t86 101t31.5 131v119q-66 16 -153.5 31.5t-200.5 15.5q-166 0 -255 -66.5t-89 -177.5v-4zM291 1219 q29 111 69.5 150.5t102.5 39.5q29 0 63.5 -13.5t70.5 -28.5t68.5 -28.5t59.5 -13.5q37 0 58.5 21.5t43.5 80.5l70 -18q-29 -111 -70 -150.5t-102 -39.5q-29 0 -63.5 13t-70.5 28.5t-69 29t-59 13.5q-37 0 -58.5 -21.5t-44.5 -81.5z" />
<glyph unicode="&#xe4;" horiz-adv-x="1175" d="M104 303v4q0 82 34 145.5t93.5 106.5t143.5 65.5t186 22.5q111 0 190.5 -12t155.5 -33v45q0 160 -91 240t-253 80q-96 0 -176 -23.5t-151 -60.5l-37 88q86 41 174 65.5t196 24.5q215 0 330 -115q106 -106 107 -295v-651h-99v174q-27 -37 -64.5 -72.5t-86.5 -63.5 t-111.5 -45.5t-136.5 -17.5t-145.5 20.5t-129 61.5t-93.5 102.5t-36 143.5zM211 309q0 -57 24.5 -101t66.5 -75t97.5 -47t114.5 -16q80 0 151.5 23.5t126 65.5t86 101t31.5 131v119q-66 16 -153.5 31.5t-200.5 15.5q-166 0 -255 -66.5t-89 -177.5v-4zM356 1219v163h142v-163 h-142zM690 1219v163h141v-163h-141z" />
<glyph unicode="&#xe5;" horiz-adv-x="1175" d="M104 303v4q0 82 34 145.5t93.5 106.5t143.5 65.5t186 22.5q111 0 190.5 -12t155.5 -33v45q0 160 -91 240t-253 80q-96 0 -176 -23.5t-151 -60.5l-37 88q86 41 174 65.5t196 24.5q215 0 330 -115q106 -106 107 -295v-651h-99v174q-27 -37 -64.5 -72.5t-86.5 -63.5 t-111.5 -45.5t-136.5 -17.5t-145.5 20.5t-129 61.5t-93.5 102.5t-36 143.5zM211 309q0 -57 24.5 -101t66.5 -75t97.5 -47t114.5 -16q80 0 151.5 23.5t126 65.5t86 101t31.5 131v119q-66 16 -153.5 31.5t-200.5 15.5q-166 0 -255 -66.5t-89 -177.5v-4zM393 1405v4 q0 39 16.5 74t44 60.5t63.5 40.5t77 15q39 0 76 -15t64.5 -40.5t44 -60.5t16.5 -74v-4q0 -39 -16.5 -74t-44 -60.5t-64.5 -41t-76 -15.5q-41 0 -77 15.5t-63.5 41t-44 60.5t-16.5 74zM467 1405q0 -51 38 -88t89 -37t89 37t38 88v4q0 51 -37 88t-90 37t-90 -37t-37 -88v-4z " />
<glyph unicode="&#xe6;" horiz-adv-x="1953" d="M104 303v4q0 82 33 145.5t92.5 106.5t141.5 65.5t180 22.5q102 0 177 -12t151 -33v45q0 160 -86 240t-244 80q-92 0 -167 -23.5t-146 -60.5l-37 88q88 41 170 65.5t186 24.5q156 0 258 -65.5t137 -196.5q61 123 172 196.5t250 73.5q111 0 199 -42t150.5 -115.5t96 -173 t33.5 -216.5v-21t-2 -20h-866q6 -98 43 -174t92.5 -129t126 -80.5t148.5 -27.5q123 0 208 47t150 116l70 -61q-80 -86 -181.5 -141.5t-250.5 -55.5q-129 0 -241 60.5t-181 169.5q-82 -94 -197.5 -162t-271.5 -68q-72 0 -142.5 20.5t-126 61.5t-90.5 102.5t-35 143.5z M211 309q0 -57 23.5 -101t63.5 -75t93.5 -47t112.5 -16q135 0 238.5 62.5t179.5 156.5q-20 51 -31.5 106.5t-13.5 116.5q-66 16 -149 30.5t-183 14.5q-162 0 -248 -66.5t-86 -177.5v-4zM983 571h760q-6 80 -31.5 153t-72 129t-114 90t-157.5 34q-78 0 -145.5 -31t-117.5 -85 t-83 -129t-39 -161z" />
<glyph unicode="&#xe7;" horiz-adv-x="1169" d="M119 518v4q0 111 41 209t112.5 174t169 120t209.5 44q74 0 134.5 -15.5t111.5 -42t93 -61.5t79 -73l-72 -74q-68 70 -149.5 121t-198.5 51q-90 0 -166.5 -35t-133 -95.5t-89.5 -142t-33 -176.5v-4q0 -94 34 -177t92.5 -144.5t136 -96t167.5 -34.5q111 0 198 50t153 124 l69 -62q-78 -86 -172 -143t-229 -64l-137 -278l-113 53l156 230q-100 12 -185.5 60t-147 120.5t-96 164t-34.5 193.5z" />
<glyph unicode="&#xe8;" horiz-adv-x="1196" d="M119 520v4q0 113 38 212.5t104.5 173t156.5 116.5t196 43q111 0 199 -42t150.5 -115.5t96.5 -173t34 -216.5v-21t-2 -20h-867q6 -98 43 -174t92.5 -129t126 -80.5t148.5 -27.5q123 0 208 47t150 116l70 -61q-80 -86 -181 -141.5t-251 -55.5q-102 0 -195.5 39t-164 111 t-111.5 172t-41 223zM225 571h760q-6 80 -31.5 153t-71.5 129t-114 90t-158 34q-78 0 -145.5 -31t-117.5 -85t-83 -129t-39 -161zM367 1430l125 61l180 -272h-86z" />
<glyph unicode="&#xe9;" horiz-adv-x="1196" d="M119 520v4q0 113 38 212.5t104.5 173t156.5 116.5t196 43q111 0 199 -42t150.5 -115.5t96.5 -173t34 -216.5v-21t-2 -20h-867q6 -98 43 -174t92.5 -129t126 -80.5t148.5 -27.5q123 0 208 47t150 116l70 -61q-80 -86 -181 -141.5t-251 -55.5q-102 0 -195.5 39t-164 111 t-111.5 172t-41 223zM225 571h760q-6 80 -31.5 153t-71.5 129t-114 90t-158 34q-78 0 -145.5 -31t-117.5 -85t-83 -129t-39 -161zM526 1219l181 272l124 -61l-219 -211h-86z" />
<glyph unicode="&#xea;" horiz-adv-x="1196" d="M119 520v4q0 113 38 212.5t104.5 173t156.5 116.5t196 43q111 0 199 -42t150.5 -115.5t96.5 -173t34 -216.5v-21t-2 -20h-867q6 -98 43 -174t92.5 -129t126 -80.5t148.5 -27.5q123 0 208 47t150 116l70 -61q-80 -86 -181 -141.5t-251 -55.5q-102 0 -195.5 39t-164 111 t-111.5 172t-41 223zM225 571h760q-6 80 -31.5 153t-71.5 129t-114 90t-158 34q-78 0 -145.5 -31t-117.5 -85t-83 -129t-39 -161zM362 1219l205 249h82l205 -249h-96l-152 139l-151 -139h-93z" />
<glyph unicode="&#xeb;" horiz-adv-x="1196" d="M119 520v4q0 113 38 212.5t104.5 173t156.5 116.5t196 43q111 0 199 -42t150.5 -115.5t96.5 -173t34 -216.5v-21t-2 -20h-867q6 -98 43 -174t92.5 -129t126 -80.5t148.5 -27.5q123 0 208 47t150 116l70 -61q-80 -86 -181 -141.5t-251 -55.5q-102 0 -195.5 39t-164 111 t-111.5 172t-41 223zM225 571h760q-6 80 -31.5 153t-71.5 129t-114 90t-158 34q-78 0 -145.5 -31t-117.5 -85t-83 -129t-39 -161zM371 1219v163h141v-163h-141zM705 1219v163h141v-163h-141z" />
<glyph unicode="&#xec;" horiz-adv-x="509" d="M-10 1430l125 61l180 -272h-86zM205 0v1044h100v-1044h-100z" />
<glyph unicode="&#xed;" horiz-adv-x="509" d="M205 0v1044h100v-1044h-100zM215 1219l180 272l125 -61l-219 -211h-86z" />
<glyph unicode="&#xee;" horiz-adv-x="509" d="M8 1219l205 249h82l205 -249h-97l-151 139l-152 -139h-92zM205 0v1044h100v-1044h-100z" />
<glyph unicode="&#xef;" horiz-adv-x="509" d="M16 1219v163h142v-163h-142zM205 0v1044h100v-1044h-100zM350 1219v163h142v-163h-142z" />
<glyph unicode="&#xf0;" horiz-adv-x="1286" d="M119 498v4q0 111 41 202t108.5 155.5t156.5 100t185 35.5q125 0 210 -37.5t153 -91.5l-301 426l-273 -139l-59 74l281 137l-93 131h129l56 -84l200 102l58 -73l-209 -103l223 -329q78 -115 128 -233t50 -265v-4q0 -104 -38 -200.5t-106.5 -170.5t-166.5 -117t-219 -43 q-111 0 -205 42t-162.5 114t-107.5 167t-39 200zM227 492q0 -80 31 -157t86 -135.5t132 -94t167 -35.5q92 0 168 34.5t130 93t84 136.5t30 162v4q0 82 -33 155.5t-91.5 129t-137 88t-170.5 32.5t-165 -31.5t-124 -87t-79 -130t-28 -160.5v-4z" />
<glyph unicode="&#xf1;" horiz-adv-x="1255" d="M190 0v1044h101v-194q53 92 143 155.5t234 63.5q98 0 176 -31.5t132 -89t81.5 -136.5t27.5 -173v-639h-100v621q0 162 -86 259t-246 97q-78 0 -143.5 -27.5t-114.5 -77t-76.5 -118t-27.5 -150.5v-604h-101zM334 1219q29 111 69.5 150.5t102.5 39.5q29 0 63.5 -13.5 t70.5 -28.5t68.5 -28.5t59.5 -13.5q37 0 58.5 21.5t43.5 80.5l70 -18q-29 -111 -70 -150.5t-102 -39.5q-29 0 -63.5 13t-70.5 28.5t-69 29t-59 13.5q-37 0 -58.5 -21.5t-44.5 -81.5z" />
<glyph unicode="&#xf2;" d="M119 518v4q0 111 40 209t112.5 174t171 120t214.5 44q117 0 214.5 -44t169 -117.5t111.5 -172t40 -209.5v-4q0 -111 -40 -209t-112.5 -174t-171 -120t-215.5 -44t-214 44t-168.5 118t-111.5 172.5t-40 208.5zM227 522q0 -94 33 -177t91.5 -144.5t137 -96t168.5 -34.5 q92 0 171 35.5t135.5 96t88 142.5t31.5 174v4q0 94 -32.5 177t-91 144.5t-137.5 96.5t-169 35q-92 0 -171 -36t-135 -96.5t-88 -142.5t-32 -174v-4zM391 1430l125 61l180 -272h-86z" />
<glyph unicode="&#xf3;" d="M119 518v4q0 111 40 209t112.5 174t171 120t214.5 44q117 0 214.5 -44t169 -117.5t111.5 -172t40 -209.5v-4q0 -111 -40 -209t-112.5 -174t-171 -120t-215.5 -44t-214 44t-168.5 118t-111.5 172.5t-40 208.5zM227 522q0 -94 33 -177t91.5 -144.5t137 -96t168.5 -34.5 q92 0 171 35.5t135.5 96t88 142.5t31.5 174v4q0 94 -32.5 177t-91 144.5t-137.5 96.5t-169 35q-92 0 -171 -36t-135 -96.5t-88 -142.5t-32 -174v-4zM614 1219l181 272l125 -61l-220 -211h-86z" />
<glyph unicode="&#xf4;" d="M119 518v4q0 111 40 209t112.5 174t171 120t214.5 44q117 0 214.5 -44t169 -117.5t111.5 -172t40 -209.5v-4q0 -111 -40 -209t-112.5 -174t-171 -120t-215.5 -44t-214 44t-168.5 118t-111.5 172.5t-40 208.5zM227 522q0 -94 33 -177t91.5 -144.5t137 -96t168.5 -34.5 q92 0 171 35.5t135.5 96t88 142.5t31.5 174v4q0 94 -32.5 177t-91 144.5t-137.5 96.5t-169 35q-92 0 -171 -36t-135 -96.5t-88 -142.5t-32 -174v-4zM410 1219l204 249h82l205 -249h-96l-152 139l-151 -139h-92z" />
<glyph unicode="&#xf5;" d="M119 518v4q0 111 40 209t112.5 174t171 120t214.5 44q117 0 214.5 -44t169 -117.5t111.5 -172t40 -209.5v-4q0 -111 -40 -209t-112.5 -174t-171 -120t-215.5 -44t-214 44t-168.5 118t-111.5 172.5t-40 208.5zM227 522q0 -94 33 -177t91.5 -144.5t137 -96t168.5 -34.5 q92 0 171 35.5t135.5 96t88 142.5t31.5 174v4q0 94 -32.5 177t-91 144.5t-137.5 96.5t-169 35q-92 0 -171 -36t-135 -96.5t-88 -142.5t-32 -174v-4zM352 1219q29 111 70 150.5t102 39.5q29 0 64 -13.5t70.5 -28.5t68.5 -28.5t59 -13.5q37 0 58.5 21.5t44.5 80.5l69 -18 q-29 -111 -69.5 -150.5t-102.5 -39.5q-29 0 -63.5 13t-70.5 28.5t-68.5 29t-59.5 13.5q-37 0 -58.5 -21.5t-43.5 -81.5z" />
<glyph unicode="&#xf6;" d="M119 518v4q0 111 40 209t112.5 174t171 120t214.5 44q117 0 214.5 -44t169 -117.5t111.5 -172t40 -209.5v-4q0 -111 -40 -209t-112.5 -174t-171 -120t-215.5 -44t-214 44t-168.5 118t-111.5 172.5t-40 208.5zM227 522q0 -94 33 -177t91.5 -144.5t137 -96t168.5 -34.5 q92 0 171 35.5t135.5 96t88 142.5t31.5 174v4q0 94 -32.5 177t-91 144.5t-137.5 96.5t-169 35q-92 0 -171 -36t-135 -96.5t-88 -142.5t-32 -174v-4zM418 1219v163h141v-163h-141zM752 1219v163h141v-163h-141z" />
<glyph unicode="&#xf8;" d="M88 -10l162 168q-61 72 -96 165t-35 195v4q0 111 40 209t112.5 174t171 120t214.5 44q100 0 187.5 -32.5t154.5 -92.5l107 115h117l-164 -172q63 -72 98 -164t35 -197v-4q0 -111 -40 -209t-112.5 -174t-171 -120t-215.5 -44q-100 0 -187 33t-155 90l-106 -108h-117z M227 522q0 -84 24.5 -156.5t72.5 -132.5l610 633q-57 51 -128 80t-153 29q-92 0 -171 -36t-135 -96.5t-88 -142.5t-32 -174v-4zM377 176q57 -51 127.5 -78.5t152.5 -27.5q92 0 171 35.5t135.5 96t88 142.5t31.5 174v4q0 84 -25.5 157t-70.5 132z" />
<glyph unicode="&#xf9;" horiz-adv-x="1255" d="M170 406v638h100v-620q0 -162 86 -259t246 -97q76 0 142.5 27.5t115.5 76.5t77 117.5t28 150.5v604h100v-1044h-100v195q-53 -92 -143.5 -156t-233.5 -64q-98 0 -176 32t-132.5 89.5t-82 136t-27.5 173.5zM373 1419l125 62l180 -273h-86z" />
<glyph unicode="&#xfa;" horiz-adv-x="1255" d="M170 406v638h100v-620q0 -162 86 -259t246 -97q76 0 142.5 27.5t115.5 76.5t77 117.5t28 150.5v604h100v-1044h-100v195q-53 -92 -143.5 -156t-233.5 -64q-98 0 -176 32t-132.5 89.5t-82 136t-27.5 173.5zM567 1208l181 273l124 -62l-219 -211h-86z" />
<glyph unicode="&#xfb;" horiz-adv-x="1255" d="M170 406v638h100v-620q0 -162 86 -259t246 -97q76 0 142.5 27.5t115.5 76.5t77 117.5t28 150.5v604h100v-1044h-100v195q-53 -92 -143.5 -156t-233.5 -64q-98 0 -176 32t-132.5 89.5t-82 136t-27.5 173.5zM385 1219l205 249h82l205 -249h-97l-151 139l-152 -139h-92z" />
<glyph unicode="&#xfc;" horiz-adv-x="1255" d="M170 406v638h100v-620q0 -162 86 -259t246 -97q76 0 142.5 27.5t115.5 76.5t77 117.5t28 150.5v604h100v-1044h-100v195q-53 -92 -143.5 -156t-233.5 -64q-98 0 -176 32t-132.5 89.5t-82 136t-27.5 173.5zM393 1219v163h142v-163h-142zM727 1219v163h141v-163h-141z" />
<glyph unicode="&#xfd;" horiz-adv-x="1204" d="M80 1044h117l434 -933l377 933h110l-452 -1081q-70 -164 -153 -230.5t-196 -66.5q-59 0 -106 11.5t-100 33.5l34 88q41 -20 80 -29.5t99 -9.5q41 0 75.5 12.5t65.5 42t59.5 77t57.5 114.5zM575 1208l181 273l125 -62l-219 -211h-87z" />
<glyph unicode="&#xfe;" horiz-adv-x="1351" d="M190 -328v1823h101v-684q33 51 76 98t95 82t116.5 56.5t142.5 21.5q94 0 185 -37t163 -106.5t116 -171t44 -228.5v-4q0 -127 -44 -228t-116 -172t-163 -109t-185 -38q-78 0 -143.5 20.5t-117.5 55.5t-94 80t-75 94v-553h-101zM285 520q0 -100 35.5 -183t95 -141.5 t136.5 -91t159 -32.5q86 0 160.5 30.5t130 88t87 140.5t31.5 187v4q0 102 -32.5 186.5t-89 142.5t-131 90t-156.5 32t-159 -33t-136.5 -92.5t-95 -141t-35.5 -182.5v-4z" />
<glyph unicode="&#xff;" horiz-adv-x="1204" d="M80 1044h117l434 -933l377 933h110l-452 -1081q-70 -164 -153 -230.5t-196 -66.5q-59 0 -106 11.5t-100 33.5l34 88q41 -20 80 -29.5t99 -9.5q41 0 75.5 12.5t65.5 42t59.5 77t57.5 114.5zM365 1219v163h141v-163h-141zM698 1219v163h142v-163h-142z" />
<glyph unicode="&#x152;" horiz-adv-x="2359" d="M150 713v4q0 152 55 282.5t156.5 227t240.5 152t309 55.5h1309v-99h-883v-563h791v-98h-791v-576h893v-98h-1319q-170 0 -309 54.5t-240.5 150.5t-156.5 226t-55 282zM260 717q0 -127 46 -239.5t130 -196.5t205 -133.5t270 -49.5h320v1237h-320q-150 0 -270.5 -48 t-204.5 -131t-130 -194.5t-46 -240.5v-4z" />
<glyph unicode="&#x153;" horiz-adv-x="2160" d="M119 518v4q0 111 41 209t112.5 174t170 120t212.5 44q82 0 157 -23.5t136.5 -66.5t108.5 -101.5t78 -127.5q57 143 174.5 231t271.5 88q109 0 197 -42t150.5 -115.5t96 -173t33.5 -216.5v-21t-2 -20h-866q6 -98 43 -174t92 -129t126 -80.5t148 -27.5q123 0 208 47 t151 116l70 -61q-80 -86 -180.5 -141.5t-248.5 -55.5q-76 0 -146.5 22.5t-131.5 63.5t-108.5 101.5t-77.5 134.5q-31 -70 -78 -129t-109.5 -102t-137.5 -67t-159 -24q-115 0 -212 44t-168.5 118t-111.5 172.5t-40 208.5zM227 522q0 -94 33 -177t91.5 -144.5t137 -96 t168.5 -34.5q92 0 171 35.5t135.5 96t88 142.5t31.5 174v4q0 94 -32.5 177t-91 144.5t-137.5 96.5t-169 35q-92 0 -171 -36t-135 -96.5t-88 -142.5t-32 -174v-4zM1190 571h760q-6 80 -32 153t-72 129t-113.5 90t-157.5 34q-78 0 -145.5 -31t-117.5 -85t-83 -129t-39 -161z " />
<glyph unicode="&#x178;" horiz-adv-x="1466" d="M66 1434h133l536 -770l539 770h127l-615 -865v-569h-106v567zM496 1556v164h141v-164h-141zM829 1556v164h142v-164h-142z" />
<glyph unicode="&#x2c6;" horiz-adv-x="1024" d="M266 1219l205 249h82l205 -249h-96l-152 139l-152 -139h-92z" />
<glyph unicode="&#x2dc;" horiz-adv-x="1024" d="M209 1219q29 111 69.5 150.5t102.5 39.5q29 0 63.5 -13.5t70.5 -28.5t68.5 -28.5t59.5 -13.5q37 0 58.5 21.5t43.5 80.5l70 -18q-29 -111 -69.5 -150.5t-102.5 -39.5q-29 0 -63.5 13t-70.5 28.5t-68.5 29t-59.5 13.5q-37 0 -58.5 -21.5t-43.5 -81.5z" />
<glyph unicode="&#x2000;" horiz-adv-x="919" />
<glyph unicode="&#x2001;" horiz-adv-x="1839" />
<glyph unicode="&#x2002;" horiz-adv-x="919" />
<glyph unicode="&#x2003;" horiz-adv-x="1839" />
<glyph unicode="&#x2004;" horiz-adv-x="613" />
<glyph unicode="&#x2005;" horiz-adv-x="459" />
<glyph unicode="&#x2006;" horiz-adv-x="306" />
<glyph unicode="&#x2007;" horiz-adv-x="306" />
<glyph unicode="&#x2008;" horiz-adv-x="229" />
<glyph unicode="&#x2009;" horiz-adv-x="367" />
<glyph unicode="&#x200a;" horiz-adv-x="102" />
<glyph unicode="&#x2010;" horiz-adv-x="835" d="M143 551v115h549v-115h-549z" />
<glyph unicode="&#x2011;" horiz-adv-x="835" d="M143 551v115h549v-115h-549z" />
<glyph unicode="&#x2012;" horiz-adv-x="835" d="M143 551v115h549v-115h-549z" />
<glyph unicode="&#x2013;" horiz-adv-x="1081" d="M143 555v107h795v-107h-795z" />
<glyph unicode="&#x2014;" horiz-adv-x="1839" d="M143 555v107h1553v-107h-1553z" />
<glyph unicode="&#x2018;" horiz-adv-x="471" d="M158 1051v151q0 96 39 151.5t131 90.5l24 -51q-66 -35 -92.5 -72t-21.5 -96h55v-174h-135z" />
<glyph unicode="&#x2019;" horiz-adv-x="471" d="M119 1092q66 35 92.5 71.5t21.5 96.5h-55v174h135v-152q0 -96 -38.5 -151.5t-131.5 -90.5z" />
<glyph unicode="&#x201a;" horiz-adv-x="471" d="M109 -168q66 35 92 72t22 96h-55v174h135v-151q0 -96 -39 -151.5t-131 -90.5z" />
<glyph unicode="&#x201c;" horiz-adv-x="839" d="M158 1051v151q0 96 39 151.5t131 90.5l24 -51q-66 -35 -92.5 -72t-21.5 -96h55v-174h-135zM526 1051v151q0 96 39 151.5t131 90.5l25 -51q-66 -35 -92.5 -72t-22.5 -96h56v-174h-136z" />
<glyph unicode="&#x201d;" horiz-adv-x="839" d="M119 1092q66 35 92.5 71.5t21.5 96.5h-55v174h135v-152q0 -96 -38.5 -151.5t-131.5 -90.5zM487 1092q66 35 92.5 71.5t22.5 96.5h-55v174h135v-152q0 -96 -39 -151.5t-131 -90.5z" />
<glyph unicode="&#x201e;" horiz-adv-x="839" d="M109 -168q66 35 92 72t22 96h-55v174h135v-151q0 -96 -39 -151.5t-131 -90.5zM477 -168q66 35 92.5 72t22.5 96h-55v174h135v-151q0 -96 -39 -151.5t-131 -90.5z" />
<glyph unicode="&#x2022;" horiz-adv-x="962" d="M227 719v4q0 51 20.5 97t56.5 81t82 54.5t95 19.5t95.5 -19.5t81 -54.5t56 -81t21.5 -97v-4q0 -53 -20.5 -98.5t-54 -80t-81 -54t-98.5 -19.5q-53 0 -99 19.5t-80 54t-54.5 80t-20.5 98.5z" />
<glyph unicode="&#x2026;" horiz-adv-x="1392" d="M168 0v170h131v-170h-131zM631 0v170h131v-170h-131zM1094 0v170h131v-170h-131z" />
<glyph unicode="&#x202f;" horiz-adv-x="367" />
<glyph unicode="&#x2039;" horiz-adv-x="636" d="M104 514v16l328 428l76 -49l-281 -385l281 -389l-76 -49z" />
<glyph unicode="&#x203a;" horiz-adv-x="636" d="M129 135l281 385l-281 389l76 49l327 -428v-16l-327 -428z" />
<glyph unicode="&#x205f;" horiz-adv-x="459" />
<glyph unicode="&#x2122;" horiz-adv-x="1413" d="M53 1364v70h486v-70h-207v-561h-72v561h-207zM682 803v631h76l246 -375l245 375h74v-631h-72v504l-243 -365h-11l-243 365v-504h-72z" />
<glyph unicode="&#xe000;" horiz-adv-x="1044" d="M0 0v1044h1044v-1044h-1044z" />
</font>
</defs></svg> 